plots_new_comp
…
data_BES_part_low <- data %>%
  filter(study == 3 & c == 0 & d == 0.2 & n_sample %in% c(25, 500) & BES_PMP1c_part <= 0.5)

data_BES_part_low %>% filter(ind == 1 & n_sample == 500) # empty -> happens only in low samples

# A tibble: 0 × 16
# ℹ 16 variables: nsim <int>, n_sample <dbl>, study <int>, d <dbl>, c <dbl>,
#   H_comp <chr>, H_part <chr>, BF1u_comp <dbl>, PMP1c_comp <dbl>,
#   BF1u_part <dbl>, PMP1c_part <dbl>, ind <dbl>, PMP1u_comp <dbl>,
#   PMP1u_part <dbl>, BES_PMP1c_part <dbl>, BES_PMP1u_part <dbl>

data_BES_part_low %>% filter(ind == 1 & n_sample == 25)

# A tibble: 65 × 16
    nsim n_sample study     d     c H_comp H_part BF1u_comp PMP1c_comp BF1u_part
   <int>    <dbl> <int> <dbl> <dbl> <chr>  <chr>      <dbl>      <dbl>     <dbl>
 1   104       25     3   0.2     0 mu_s … mu_f …     16.0       0.979      1.64
 2   238       25     3   0.2     0 mu_s … mu_f …      4.21      0.839      1.14
 3   251       25     3   0.2     0 mu_s … mu_f …      5.03      0.867      1.07
 4   326       25     3   0.2     0 mu_s … mu_f …     11.8       0.951      1.24
 5   369       25     3   0.2     0 mu_s … mu_f …     12.2       0.945      1.13
 6   372       25     3   0.2     0 mu_s … mu_f …      4.25      0.828      1.03
 7   385       25     3   0.2     0 mu_s … mu_f …      9.91      0.945      1.18
 8   422       25     3   0.2     0 mu_s … mu_f …     10.4       0.941      1.55
 9   442       25     3   0.2     0 mu_s … mu_f …      5.52      0.896      1.52
10   474       25     3   0.2     0 mu_s … mu_f …      4.33      0.836      1.44
# ℹ 55 more rows
# ℹ 6 more variables: PMP1c_part <dbl>, ind <dbl>, PMP1u_comp <dbl>,
#   PMP1u_part <dbl>, BES_PMP1c_part <dbl>, BES_PMP1u_part <dbl>
…
data_BES_part_low_u <- data %>%
  filter(study == 3 & c == 0 & d == 0.2 & n_sample %in% c(25, 500) & BES_PMP1u_part <= 0.5)

data_BES_part_low_u %>% filter(ind == 1 & n_sample == 500) # empty -> happens only in low samples

# A tibble: 0 × 16
# ℹ 16 variables: nsim <int>, n_sample <dbl>, study <int>, d <dbl>, c <dbl>,
#   H_comp <chr>, H_part <chr>, BF1u_comp <dbl>, PMP1c_comp <dbl>,
#   BF1u_part <dbl>, PMP1c_part <dbl>, ind <dbl>, PMP1u_comp <dbl>,
#   PMP1u_part <dbl>, BES_PMP1c_part <dbl>, BES_PMP1u_part <dbl>

data_BES_part_low_u %>% filter(ind == 1 & n_sample == 25)

# A tibble: 148 × 16
    nsim n_sample study     d     c H_comp H_part BF1u_comp PMP1c_comp BF1u_part
   <int>    <dbl> <int> <dbl> <dbl> <chr>  <chr>      <dbl>      <dbl>     <dbl>
 1     1       25     3   0.2     0 mu_s … mu_f …     11.0       0.964      2.00
 2    31       25     3   0.2     0 mu_s … mu_f …     26.0       0.98       1.43
 3    32       25     3   0.2     0 mu_s … mu_f …      2.35      0.721      1.14
 4    56       25     3   0.2     0 mu_s … mu_f …      4.03      0.823      1.55
 5    57       25     3   0.2     0 mu_s … mu_f …     15.5       0.968      1.90
 6    78       25     3   0.2     0 mu_s … mu_f …     17.9       0.979      1.99
 7   104       25     3   0.2     0 mu_s … mu_f …     16.0       0.979      1.64
 8   107       25     3   0.2     0 mu_s … mu_f …     13.6       0.96       1.81
 9   132       25     3   0.2     0 mu_s … mu_f …      5.49      0.868      1.13
10   161       25     3   0.2     0 mu_s … mu_f …      7.59      0.915      1.53
# ℹ 138 more rows
# ℹ 6 more variables: PMP1c_part <dbl>, ind <dbl>, PMP1u_comp <dbl>,
#   PMP1u_part <dbl>, BES_PMP1c_part <dbl>, BES_PMP1u_part <dbl>
…
data_BES_part_low_u <- data %>%
  filter(study == 3 & c == 0.8 & d == 0.2 & n_sample %in% c(25, 500) & BES_PMP1u_part <= 0.5)

data_BES_part_low_u %>% filter(ind == 1 & n_sample == 500) # empty -> happens only in low samples

# A tibble: 0 × 16
# ℹ 16 variables: nsim <int>, n_sample <dbl>, study <int>, d <dbl>, c <dbl>,
#   H_comp <chr>, H_part <chr>, BF1u_comp <dbl>, PMP1c_comp <dbl>,
#   BF1u_part <dbl>, PMP1c_part <dbl>, ind <dbl>, PMP1u_comp <dbl>,
#   PMP1u_part <dbl>, BES_PMP1c_part <dbl>, BES_PMP1u_part <dbl>

data_BES_part_low_u %>% filter(ind == 1 & n_sample == 25)

# A tibble: 27 × 16
    nsim n_sample study     d     c H_comp H_part BF1u_comp PMP1c_comp BF1u_part
   <int>    <dbl> <int> <dbl> <dbl> <chr>  <chr>      <dbl>      <dbl>     <dbl>
 1    58       25     3   0.2   0.8 mu_s … mu_f …     17.5       0.977      1.96
 2   168       25     3   0.2   0.8 mu_s … mu_f …     27.1       0.994      1.97
 3   206       25     3   0.2   0.8 mu_s … mu_f …     21.8       0.989      1.59
 4   265       25     3   0.2   0.8 mu_s … mu_f …     13.2       0.965      1.30
 5   353       25     3   0.2   0.8 mu_s … mu_f …     18.6       0.988      1.97
 6   413       25     3   0.2   0.8 mu_s … mu_f …     11.6       0.966      1.42
 7   475       25     3   0.2   0.8 mu_s … mu_f …     29.3       0.998      1.98
 8   522       25     3   0.2   0.8 mu_s … mu_f …     12.6       0.98       1.89
 9   584       25     3   0.2   0.8 mu_s … mu_f …     12.2       0.97       1.66
10   765       25     3   0.2   0.8 mu_s … mu_f …      9.90      0.953      1.10
# ℹ 17 more rows
# ℹ 6 more variables: PMP1c_part <dbl>, ind <dbl>, PMP1u_comp <dbl>,
#   PMP1u_part <dbl>, BES_PMP1c_part <dbl>, BES_PMP1u_part <dbl>
…
